<svg xmlns="http://www.w3.org/2000/svg" width="20.591" height="15.252" viewBox="0 0 20.591 15.252">
  <path id="Icon_metro-coins" data-name="Icon metro-coins" d="M24.809,20.677H15.47a6.01,6.01,0,0,0,.622-1.525h8.717a.763.763,0,0,1,0,1.525Zm0-2.288H16.24a5.552,5.552,0,0,0,0-1.525h8.569a.763.763,0,0,1,0,1.525Zm0-2.288H16.092a6.038,6.038,0,0,0-.622-1.525h9.339a.763.763,0,0,1,0,1.525Zm0-2.288H14.95a6.108,6.108,0,0,0-1.807-1.525H24.809a.763.763,0,0,1,0,1.525Zm0-2.288h-12.2a.763.763,0,0,1,0-1.525h12.2a.763.763,0,0,1,0,1.525Zm0-2.288h-12.2a.763.763,0,0,1,0-1.525h12.2a.763.763,0,0,1,0,1.525Zm-9.151,8.389a5.338,5.338,0,1,1-5.338-5.338A5.339,5.339,0,0,1,15.657,17.626Zm-3.449.58a1.63,1.63,0,0,0-.3-.476,1.966,1.966,0,0,0-.424-.348,4.888,4.888,0,0,0-.486-.26q-.242-.111-.486-.217a3.17,3.17,0,0,1-.426-.219,1.074,1.074,0,0,1-.3-.267.576.576,0,0,1-.112-.355.7.7,0,0,1,.05-.261.549.549,0,0,1,.153-.211.739.739,0,0,1,.255-.137,1.145,1.145,0,0,1,.358-.05,1.713,1.713,0,0,1,.481.063,2.751,2.751,0,0,1,.386.143q.167.078.281.144a.4.4,0,0,0,.167.066.117.117,0,0,0,.083-.028.188.188,0,0,0,.047-.091.9.9,0,0,0,.024-.157c0-.064.007-.143.007-.235s0-.152,0-.207a1.08,1.08,0,0,0-.016-.139.433.433,0,0,0-.028-.088.361.361,0,0,0-.065-.08.76.76,0,0,0-.2-.118,2.258,2.258,0,0,0-.338-.127,3,3,0,0,0-.41-.09c-.03,0-.06,0-.09-.007v-.789h-.75v.789a2.75,2.75,0,0,0-.4.083,1.886,1.886,0,0,0-.657.331,1.6,1.6,0,0,0-.443.557,1.955,1.955,0,0,0-.05,1.441,1.636,1.636,0,0,0,.3.479,1.957,1.957,0,0,0,.416.347,4.315,4.315,0,0,0,.481.26c.165.076.326.148.481.217a3.2,3.2,0,0,1,.416.219,1.145,1.145,0,0,1,.3.267.578.578,0,0,1,.114.36.8.8,0,0,1-.066.33.668.668,0,0,1-.193.248.906.906,0,0,1-.307.155,1.413,1.413,0,0,1-.41.055,2.147,2.147,0,0,1-.612-.079,2.808,2.808,0,0,1-.455-.175,3.013,3.013,0,0,1-.312-.174.4.4,0,0,0-.188-.079.138.138,0,0,0-.083.026.172.172,0,0,0-.057.088.739.739,0,0,0-.031.162c-.007.067-.01.149-.01.248a1.69,1.69,0,0,0,.026.336.351.351,0,0,0,.088.178,1.015,1.015,0,0,0,.2.142,2.086,2.086,0,0,0,.35.153,3.569,3.569,0,0,0,.483.125,3.215,3.215,0,0,0,.593.051l.027,0v.734h.75v-.833c.036-.009.074-.014.109-.024a2.147,2.147,0,0,0,.724-.369,1.765,1.765,0,0,0,.491-.612,1.906,1.906,0,0,0,.18-.853,1.665,1.665,0,0,0-.113-.644Zm2.741,3.233h9.859a.763.763,0,0,1,0,1.525H13.143a6.108,6.108,0,0,0,1.807-1.525Z" transform="translate(-4.981 -7.712)" fill="#fff"/>
</svg>
