<svg xmlns="http://www.w3.org/2000/svg" width="17.07" height="17.07" viewBox="0 0 17.07 17.07">
  <path id="Icon_awesome-coins" data-name="Icon awesome-coins" d="M0,13.513v1.424c0,1.177,2.867,2.134,6.4,2.134s6.4-.957,6.4-2.134V13.513c-1.377.97-3.894,1.424-6.4,1.424S1.377,14.483,0,13.513ZM10.669,4.268c3.534,0,6.4-.957,6.4-2.134S14.2,0,10.669,0s-6.4.957-6.4,2.134S7.135,4.268,10.669,4.268ZM0,10.015v1.72c0,1.177,2.867,2.134,6.4,2.134s6.4-.957,6.4-2.134v-1.72c-1.377,1.134-3.9,1.72-6.4,1.72S1.377,11.149,0,10.015Zm13.87.367c1.91-.37,3.2-1.057,3.2-1.847V7.111a8.187,8.187,0,0,1-3.2,1.15ZM6.4,5.334C2.867,5.334,0,6.528,0,8s2.867,2.667,6.4,2.667S12.8,9.475,12.8,8,9.935,5.334,6.4,5.334Zm7.312,1.877c2-.36,3.357-1.067,3.357-1.877V3.911A10.854,10.854,0,0,1,11.712,5.3,3.734,3.734,0,0,1,13.713,7.212Z" fill="#fff"/>
</svg>
